%YAML 1.1
%TAG !u! tag:unity3d.com,2011:
--- !u!114 &11400000
MonoBehaviour:
  m_ObjectHideFlags: 0
  m_CorrespondingSourceObject: {fileID: 0}
  m_PrefabInstance: {fileID: 0}
  m_PrefabAsset: {fileID: 0}
  m_GameObject: {fileID: 0}
  m_Enabled: 1
  m_EditorHideFlags: 0
  m_Script: {fileID: 11500000, guid: 721ed77107fc96b4d9e86c98c7649381, type: 3}
  m_Name: Rump
  m_EditorClassIdentifier: 
  name: 
  menuCharacter: {fileID: 0}
  opponentCharacter: {fileID: 0}
  playerCharacter: {fileID: 0}
  aiOn: 0
  deck: {fileID: 0}
  aiStyle: {fileID: 0}
  playerNumber: -1
  stats: {fileID: 0}
