%YAML 1.1
%TAG !u! tag:unity3d.com,2011:
--- !u!114 &11400000
MonoBehaviour:
  m_ObjectHideFlags: 0
  m_CorrespondingSourceObject: {fileID: 0}
  m_PrefabInstance: {fileID: 0}
  m_PrefabAsset: {fileID: 0}
  m_GameObject: {fileID: 0}
  m_Enabled: 1
  m_EditorHideFlags: 0
  m_Script: {fileID: 11500000, guid: d88d5b8ff6044214588a34efcdbd208b, type: 3}
  m_Name: Stats
  m_EditorClassIdentifier: 
  startingAudience: 0.5
  startingTime: 1
  startingPatience: 1
  allowedTurn: 0
  audience: 0.5
  time: 1
  patience: 1
